Analysing Long Read RNA-Seq data with bambu • bambu
…
##>                      txid   eqClassById
##>                 <integer> <IntegerList>
##> tx.1                    1             1
##> tx.2                    2             2
##> tx.3                    3             3
##> tx.4                    4             4
##> tx.5                    5             5
##> ...                   ...           ...
##> ENST00000641242      1508          1508
##> ENST00000641337      1509          1509
##> ENST00000641915      1510          1510
##> ENST00000641933      1511          1511
##> ENST00000641967      1512          1512
metadata(se)$readToTranscriptMaps[[1]]
##> # A tibble: 22,069 × 3
##>    read_id                              equal_matches compatible_matches
##>    <chr>                                <list>        <list>            
##>  1 9db30f53-2e3a-45bc-a01a-586782f00797 <NULL>        <NULL>            
##>  2 dec47cfc-becc-4ff1-9344-0275c2518a41 <NULL>        <NULL>            
##>  3 d544f2e7-a8cc-4a4c-94da-161213ba767b <NULL>        <NULL>            
##>  4 3a49d2c1-92e8-409c-bbec-0901cf6efa6c <NULL>        <NULL>            
##>  5 881bcf9d-9d04-44cb-8d69-a2c03eb9f417 <NULL>        <NULL>            
##>  6 4f41b1d0-69bf-4eeb-8eab-fd552ec1e991 <NULL>        <NULL>            
##>  7 a6d7ed99-683c-4f23-a138-d387059fc65e <NULL>        <NULL>            
##>  8 af2ffb1f-98e3-4e0b-befc-5571fd6af49e <NULL>        <NULL>            
##>  9 9a0ed6a4-6d9b-4264-ba97-858f93eca3a7 <NULL>        <NULL>            
##> 10 1e6750b9-ed24-4626-96f3-c25625ffbfa3 <NULL>        <NULL>            
##> # … with 22,059 more rows
…
